{{0.5, -12.546493046947944 + 0.*I}, {0.5499999999999999, 
  -13.28557663319657 + 0.*I}, {0.6, -13.92675078465902 + 0.*I}, 
 {0.6499999999999999, -14.47505401985427 + 0.*I}, 
 {0.7, -14.935113460634398 + 0.*I}, {0.7499999999999999, 
  -15.311160141077721 + 0.*I}, {0.8, -15.60705318017574 + 0.*I}, 
 {0.85, -15.82630709044463 + 0.*I}, {0.8999999999999999, 
  -15.972119284834662 + 0.*I}, {0.95, -16.047396324636907 + 0.*I}, 
 {0.9999999999999998, -16.054778247957188 + 0.*I}, 
 {1.05, -15.996660746756561 + 0.*I}, {1.0999999999999999, 
  -15.875215189145933 + 0.*I}, {1.15, -15.692406599977858 + 0.*I}, 
 {1.2, -15.450009768142422 + 0.*I}, {1.2499999999999998, 
  -15.14962366986947 + 0.*I}, {1.2999999999999998, 
  -14.792684399732593 + 0.*I}, {1.3499999999999999, 
  -14.380476794115566 + 0.*I}, {1.3999999999999997, 
  -13.914144920084482 + 0.*I}, {1.45, -13.394701589407418 + 0.*I}, 
 {1.4999999999999998, -12.823037043722138 + 0.*I}, 
 {1.5499999999999998, -12.199926943956484 + 0.*I}, 
 {1.6, -11.52603978469108 + 0.*I}, {1.65, -10.801943842947708 + 0.*I}, 
 {1.6999999999999997, -10.028113760146198 + 0.*I}, 
 {1.75, -9.20493684618566 + 0.*I}, {1.7999999999999998, 
  -8.3327191847643 + 0.*I}, {1.8499999999999996, -7.411691609761533 + 0.*I}, 
 {1.9, -6.442015612966202 + 0.*I}, {1.9499999999999997, 
  -5.4237892337060885 + 0.*I}, {2., -4.35705297092602 + 0.*I}}
