{{0.5, 10.164634254293333 + 0.*I}, {0.5499999999999999, 
  10.79859887490636 + 0.*I}, {0.6, 11.416869682935385 + 0.*I}, 
 {0.6499999999999999, 12.023651518498127 + 0.*I}, 
 {0.7, 12.623474562942306 + 0.*I}, {0.7499999999999999, 
  13.221066986894812 + 0.*I}, {0.8, 13.82124828205258 + 0.*I}, 
 {0.85, 14.42884262339578 + 0.*I}, {0.8999999999999999, 
  15.048608657150794 + 0.*I}, {0.95, 15.685181686822034 + 0.*I}, 
 {0.9999999999999998, 16.343024891594382 + 0.*I}, 
 {1.05, 17.026387257146666 + 0.*I}, {1.0999999999999999, 
  17.73926697454749 + 0.*I}, {1.15, 18.485379981213327 + 0.*I}, 
 {1.2, 19.268133972093892 + 0.*I}, {1.2499999999999998, 
  20.09060855103735 + 0.*I}, {1.2999999999999998, 20.955542222968802 + 0.*I}, 
 {1.3499999999999999, 21.865326697163937 + 0.*I}, 
 {1.3999999999999997, 22.82200856920838 + 0.*I}, 
 {1.45, 23.82729798074115 + 0.*I}, {1.4999999999999998, 
  24.882583422945686 + 0.*I}, {1.5499999999999998, 
  25.988951526920914 + 0.*I}, {1.6, 27.14721050900812 + 0.*I}, 
 {1.65, 28.357915913421607 + 0.*I}, {1.6999999999999997, 
  29.621397392876702 + 0.*I}, {1.75, 30.937785450449383 + 0.*I}, 
 {1.7999999999999998, 32.307037291362235 + 0.*I}, 
 {1.8499999999999996, 33.72896116670631 + 0.*I}, 
 {1.9, 35.20323880661681 + 0.*I}, {1.9499999999999997, 
  36.72944572394249 + 0.*I}, {2., 38.30706931480438 + 0.*I}}
