{{0.5, 1.5588375148380992*^6, 5.813676924493066*^8}, 
 {0.525, 1.8160863918296627*^6, 6.10672134735405*^8}, 
 {0.5499999999999999, 2.0889836381817309*^6, 6.399891892027804*^8}, 
 {0.575, 2.3799381652775686*^6, 6.69319047035173*^8}, 
 {0.6, 2.6915766124335304*^6, 6.986619923587923*^8}, 
 {0.625, 3.026722039353719*^6, 7.280183992524738*^8}, 
 {0.65, 3.3883735013424978*^6, 7.573887284006482*^8}, 
 {0.6749999999999999, 3.779686522971146*^6, 7.867735234924233*^8}, 
 {0.7, 4.203954427156609*^6, 8.161734074465884*^8}, 
 {0.725, 4.664590444845961*^6, 8.45589078522886*^8}, 
 {0.7499999999999999, 5.165110517844816*^6, 8.750213063648189*^8}, 
 {0.7749999999999999, 5.709116708241052*^6, 9.044709280070006*^8}, 
 {0.8, 6.300281138331545*^6, 9.339388438711075*^8}, 
 {0.8250000000000001, 6.9423304011758*^6, 9.634260137679139*^8}, 
 {0.8500000000000001, 7.639030401863302*^6, 9.929334529180726*^8}, 
 {0.875, 8.394171610967664*^6, 1.0224622280011683*^9}, 
 {0.9000000000000001, 9.211554733272437*^6, 1.0520134532409406*^9}, 
 {0.925, 1.00949768150311*^7, 1.0815882865332813*^9}, 
 {0.95, 1.1048217831261592*^7, 1.111187925623779*^9}, 
 {0.9749999999999999, 1.2075027809651032*^7, 1.14081360434148*^9}, 
 {1., 1.3179114559194107*^7, 1.1704665888964007*^9}, 
 {1.0250000000000001, 1.4364132079317883*^7, 1.2001481742487576*^9}, 
 {1.05, 1.5633669728474092*^7, 1.2298596805588684*^9}, 
 {1.075, 1.6991242230402295*^7, 1.2596024497269297*^9}, 
 {1.0999999999999999, 1.8440280591153853*^7, 1.2893778420327516*^9}, 
 {1.125, 1.9984123991292402*^7, 1.3191872328855264*^9}, 
 {1.1500000000000001, 2.1626012705714207*^7, 1.349032009693491*^9}, 
 {1.175, 2.3369082088914752*^7, 1.3789135688635044*^9}, 
 {1.2, 2.5216357647157855*^7, 1.4088333129394267*^9}, 
 {1.2249999999999999, 2.717075120150905*^7, 1.4387926478876915*^9}, 
 {1.2499999999999998, 2.9235058127905574*^7, 1.4687929805371964*^9}, 
 {1.275, 3.1411955643313855*^7, 1.4988357161791933*^9}, 
 {1.3, 3.370400209086305*^7, 1.5289222563318646*^9}, 
 {1.325, 3.611363716271009*^7, 1.5590539966720517*^9}, 
 {1.3499999999999999, 3.864318298727392*^7, 1.5892323251356916*^9}, 
 {1.3749999999999998, 4.1294845998057425*^7, 1.6194586201864095*^9}, 
 {1.4000000000000001, 4.407071949442491*^7, 1.6497342492504203*^9}, 
 {1.425, 4.697278680062181*^7, 1.680060567314547*^9}, 
 {1.45, 5.00029249278405*^7, 1.7104389156825163*^9}, 
 {1.4749999999999999, 5.3162908644978374*^7, 1.740870620883852*^9}, 
 {1.4999999999999998, 5.645441486681903*^7, 1.7713569937286408*^9}, 
 {1.525, 5.987902727301706*^7, 1.8018993285004091*^9}, 
 {1.55, 6.343824107756183*^7, 1.8324989022791286*^9}, 
 {1.575, 6.713346787549876*^7, 1.863156974385414*^9}, 
 {1.6, 7.096604050164133*^7, 1.893874785937347*^9}, 
 {1.625, 7.49372178441946*^7, 1.9246535595103943*^9}, 
 {1.65, 7.904818956458455*^7, 1.9554944988919344*^9}, 
 {1.675, 8.330008068285437*^7, 1.9863987889210172*^9}, 
 {1.7000000000000002, 8.769395599581604*^7, 2.0173675954050486*^9}, 
 {1.725, 9.223082430236611*^7, 2.0484020651049798*^9}, 
 {1.75, 9.691164241701476*^7, 2.0795033257809746*^9}, 
 {1.775, 1.0173731895864208*^8, 2.1106724862914011*^9}, 
 {1.8000000000000003, 1.0670871790671946*^8, 2.1419106367378862*^9}, 
 {1.8250000000000002, 1.1182666192173596*^8, 2.1732188486500697*^9}, 
 {1.85, 1.1709193543045864*^8, 2.2045981752041717*^9}, 
 {1.875, 1.2250528747973877*^8, 2.236049651469876*^9}, 
 {1.9, 1.2806743436520354*^8, 2.2675742946805544*^9}, 
 {1.9249999999999998, 1.3377906204314208*^8, 2.299173104522494*^9}, 
 {1.9500000000000002, 1.396408283354025*^8, 2.330847063438973*^9}, 
 {1.975, 1.4565336493825564*^8, 2.362597136945924*^9}, 
 {2., 1.518172792467711*^8, 2.3944242739556317*^9}, 
 {2.025, 1.5813315600680932*^8, 2.426329407106198*^9}, 
 {2.05, 1.646015588067201*^8, 2.4583134530939784*^9}, 
 {2.075, 1.7122303142085174*^8, 2.4903773130071573*^9}, 
 {2.1, 1.7799809901669315*^8, 2.522521872658531*^9}, 
 {2.125, 1.8492726923710978*^8, 2.5547480029162216*^9}, 
 {2.15, 1.9201103316862413*^8, 2.587056560030633*^9}, 
 {2.175, 1.9924986620620477*^8, 2.6194483859570932*^9}, 
 {2.2, 2.0664422882435885*^8, 2.6519243086729345*^9}, 
 {2.225, 2.1419456726375937*^8, 2.684485142488403*^9}, 
 {2.25, 2.2190131414199466*^8, 2.717131688350974*^9}, 
 {2.275, 2.2976488899635902*^8, 2.74986473414251*^9}, 
 {2.3000000000000003, 2.3778569876603937*^8, 2.782685054968889*^9}, 
 {2.325, 2.4596413822039694*^8, 2.815593413442197*^9}, 
 {2.35, 2.5430059033950755*^8, 2.8485905599548388*^9}, 
 {2.375, 2.6279542665256232*^8, 2.8816772329461036*^9}, 
 {2.4, 2.714490075391791*^8, 2.914854159160619*^9}, 
 {2.425, 2.802616824982662*^8, 2.9481220538991647*^9}, 
 {2.45, 2.8923379038853604*^8, 2.9814816212616987*^9}, 
 {2.475, 2.9836565964441895*^8, 3.0149335543827624*^9}, 
 {2.5, 3.076576084707191*^8, 3.0484785356595383*^9}, 
 {2.525, 3.1710994501896495*^8, 3.082117236972564*^9}, 
 {2.55, 3.2672296754814*^8, 3.1158503198993616*^9}, 
 {2.575, 3.364969645721425*^8, 3.1496784359212494*^9}, 
 {2.6, 3.4643221499605024*^8, 3.1836022266234717*^9}, 
 {2.625, 3.565289882430686*^8, 3.2176223238888903*^9}, 
 {2.65, 3.667875443737435*^8, 3.2517393500854797*^9}, 
 {2.675, 3.772081341988917*^8, 3.2859539182478456*^9}, 
 {2.6999999999999997, 3.877909993874772*^8, 3.320266632252936*^9}, 
 {2.725, 3.985363725705204*^8, 3.3546780869903274*^9}, 
 {2.75, 4.094444774419705*^8, 3.389188868527081*^9}, 
 {2.775, 4.205155288573586*^8, 3.4237995542676296*^9}, 
 {2.8, 4.317497329308986*^8, 3.458510713108643*^9}, 
 {2.8249999999999997, 4.43147287131664*^8, 3.493322905589369*^9}, 
 {2.85, 4.5470838037928766*^8, 3.528236684037435*^9}, 
 {2.875, 4.6643319313964015*^8, 3.563252592710328*^9}, 
 {2.9, 4.783218975208075*^8, 3.5983711679328413*^9}, 
 {2.925, 4.90374657369666*^8, 3.6335929382306685*^9}, 
 {2.9499999999999997, 5.0259162836925066*^8, 3.6689184244600797*^9}, 
 {2.975, 5.14972958137131*^8, 3.704348139934243*^9}, 
 {3., 5.275187863248915*^8, 3.739882590545994*^9}, 
 {3.025, 5.402292447188338*^8, 3.775522274887353*^9}, 
 {3.05, 5.531044573419577*^8, 3.8112676843660035*^9}, 
 {3.0749999999999997, 5.661445405572566*^8, 3.8471193033187413*^9}, 
 {3.1, 5.793496031723307*^8, 3.8830776091220646*^9}, 
 {3.125, 5.927197465453244*^8, 3.919143072300103*^9}, 
 {3.15, 6.062550646921407*^8, 3.955316156629847*^9}, 
 {3.175, 6.19955644394907*^8, 3.991597319244031*^9}, 
 {3.2, 6.338215653116304*^8, 4.027987010731527*^9}, 
 {3.225, 6.478529000869681*^8, 4.064485675235476*^9}, 
 {3.25, 6.62049714464054*^8, 4.101093750549251*^9}, 
 {3.275, 6.764120673973001*^8, 4.1378116682104325*^9}, 
 {3.3000000000000003, 6.90940011166062*^8, 4.1746398535925055*^9}, 
 {3.325, 7.056335914891185*^8, 4.2115787259950194*^9}, 
 {3.35, 7.20492847639832*^8, 4.248628698731563*^9}, 
 {3.375, 7.355178125619228*^8, 4.2857901792161407*^9}, 
 {3.4000000000000004, 7.507085129857472*^8, 4.323063569047857*^9}, 
 {3.425, 7.660649695449864*^8, 4.360449264093922*^9}, 
 {3.45, 7.815871968936491*^8, 4.397947654571074*^9}, 
 {3.4749999999999996, 7.9727520382328*^8, 4.435559125125472*^9}, 
 {3.5, 8.131289933803217*^8, 4.473284054911277*^9}, 
 {3.5250000000000004, 8.291485629834642*^8, 4.511122817667625*^9}, 
 {3.55, 8.453339045409738*^8, 4.549075781794427*^9}, 
 {3.575, 8.616850045678395*^8, 4.58714331042667*^9}, 
 {3.5999999999999996, 8.782018443027072*^8, 4.625325761507703*^9}, 
 {3.625, 8.948843998244781*^8, 4.663623487861022*^9}, 
 {3.6500000000000004, 9.117326421685156*^8, 4.70203683726111*^9}, 
 {3.675, 9.28746537442368*^8, 4.740566152502988*^9}, 
 {3.7, 9.45926046940949*^8, 4.779211771470775*^9}, 
 {3.7249999999999996, 9.632711272610773*^8, 4.817974027205001*^9}, 
 {3.75, 9.807817304153401*^8, 4.856853247969081*^9}, 
 {3.7750000000000004, 9.984578039451866*^8, 4.89584975731458*^9}, 
 {3.8, 1.0162992910332025*^9, 4.934963874145675*^9}, 
 {3.825, 1.0343061306145262*^9, 4.974195912782545*^9}, 
 {3.8499999999999996, 1.0524782574872928*^9, 5.0135461830238085*^9}, 
 {3.875, 1.0708156024221238*^9, 5.05301499020814*^9}, 
 {3.9000000000000004, 1.0893180922705705*^9, 5.092602635274995*^9}, 
 {3.925, 1.1079856500724638*^9, 5.132309414824362*^9}, 
 {3.95, 1.1268181951621523*^9, 5.172135621175737*^9}, 
 {3.9750000000000005, 1.1458156432735736*^9, 5.212081542426404*^9}, 
 {4., 1.1649779066441019*^9, 5.252147462508636*^9}, 
 {4.025, 1.1843048941171813*^9, 5.292333661246324*^9}, 
 {4.05, 1.203796511243665*^9, 5.332640414410751*^9}, 
 {4.075, 1.2234526603818767*^9, 5.373067993775682*^9}, 
 {4.1000000000000005, 1.2432732407963176*^9, 5.41361666717157*^9}, 
 {4.125, 1.2632581487550397*^9, 5.454286698539186*^9}, 
 {4.15, 1.2834072776256304*^9, 5.495078347982403*^9}, 
 {4.175, 1.3037205179698174*^9, 5.535991871820467*^9}, 
 {4.2, 1.3241977576366372*^9, 5.577027522639321*^9}, 
 {4.225, 1.344838881854199*^9, 5.61818554934255*^9}, 
 {4.25, 1.3656437733199904*^9, 5.659466197201347*^9}, 
 {4.275, 1.3866123122897277*^9, 5.70086970790416*^9}, 
 {4.3, 1.4077443766647546*^9, 5.742396319605352*^9}, 
 {4.325, 1.4290398420779579*^9, 5.784046266973568*^9}, 
 {4.35, 1.4504985819782038*^9, 5.825819781239142*^9}, 
 {4.375, 1.4721204677133024*^9, 5.867717090241281*^9}, 
 {4.4, 1.4939053686114738*^9, 5.909738418474214*^9}, 
 {4.425, 1.5158531520613334*^9, 5.951883987133102*^9}, 
 {4.45, 1.5379636835903811*^9, 5.994154014159121*^9}, 
 {4.475, 1.560236826942022*^9, 6.036548714284176*^9}, 
 {4.5, 1.5826724441510816*^9, 6.079068299074844*^9}, 
 {4.525, 1.6052703956178539*^9, 6.121712976975886*^9}, 
 {4.55, 1.6280305401806703*^9, 6.164482953353134*^9}, 
 {4.575, 1.6509527351869974*^9, 6.207378430535883*^9}, 
 {4.6, 1.6740368365630777*^9, 6.250399607858668*^9}, 
 {4.625, 1.6972826988821158*^9, 6.293546681702675*^9}, 
 {4.65, 1.7206901754310093*^9, 6.336819845536325*^9}, 
 {4.675, 1.7442591182756596*^9, 6.380219289955669*^9}, 
 {4.7, 1.7679893783248427*^9, 6.423745202724001*^9}, 
 {4.725, 1.7918808053926845*^9, 6.46739776881112*^9}, 
 {4.75, 1.8159332482597256*^9, 6.51117717043212*^9}, 
 {4.775, 1.8401465547325857*^9, 6.555083587085448*^9}, 
 {4.8, 1.8645205717022784*^9, 6.599117195590729*^9}, 
 {4.825, 1.8890551452011437*^9, 6.64327817012597*^9}, 
 {4.85, 1.9137501204584572*^9, 6.687566682264359*^9}, 
 {4.875, 1.938605341954679*^9, 6.731982901010476*^9}, 
 {4.8999999999999995, 1.9636206534744136*^9, 6.776526992836188*^9}, 
 {4.925, 1.9887958981580563*^9, 6.821199121715929*^9}, 
 {4.95, 2.0141309185521624*^9, 6.865999449161623*^9}, 
 {4.975, 2.0396255566585422*^9, 6.9109281342571125*^9}, 
 {5., 2.0652796539821236*^9, 6.95598533369218*^9}, 
 {5.0249999999999995, 2.0910930515775552*^9, 7.001171201796019*^9}, 
 {5.05, 2.117065590094625*^9, 7.046485890570396*^9}, 
 {5.075, 2.1431971098224602*^9, 7.091929549722325*^9}, 
 {5.1, 2.1694874507325583*^9, 7.137502326696293*^9}, 
 {5.125, 2.1959364525206523*^9, 7.183204366706036*^9}, 
 {5.1499999999999995, 2.2225439546474414*^9, 7.229035812766029*^9}, 
 {5.175, 2.2493097963781834*^9, 7.274996805722446*^9}, 
 {5.2, 2.2762338168211884*^9, 7.321087484283625*^9}, 
 {5.225, 2.3033158549652395*^9, 7.367307985050407*^9}, 
 {5.25, 2.3305557497159214*^9, 7.413658442545801*^9}, 
 {5.2749999999999995, 2.3579533399308987*^9, 7.460138989244354*^9}, 
 {5.3, 2.3855084644541926*^9, 7.506749755601188*^9}, 
 {5.325, 2.4132209621494083*^9, 7.553490870080504*^9}, 
 {5.35, 2.441090671931986*^9, 7.6003624591839075*^9}, 
 {5.375, 2.469117432800479*^9, 7.647364647478134*^9}, 
 {5.3999999999999995, 2.497301083866857*^9, 7.694497557622575*^9}, 
 {5.425, 2.5256414643858905*^9, 7.741761310396283*^9}, 
 {5.45, 2.5541384137836*^9, 7.789156024724779*^9}, 
 {5.475, 2.582791771684804*^9, 7.836681817706368*^9}, 
 {5.5, 2.6116013779397893*^9, 7.884338804638148*^9}, 
 {5.5249999999999995, 2.640567072650109*^9, 7.932127099041654*^9}, 
 {5.55, 2.6696886961935263*^9, 7.980046812688091*^9}, 
 {5.575, 2.6989660892481346*^9, 8.028098055623427*^9}, 
 {5.6, 2.7283990928156624*^9, 8.076280936192862*^9}, 
 {5.625, 2.7579875482439847*^9, 8.124595561065215*^9}, 
 {5.6499999999999995, 2.7877312972488303*^9, 8.173042035256736*^9}, 
 {5.675, 2.817630181934778*^9, 8.221620462154876*^9}, 
 {5.7, 2.8476840448154454*^9, 8.270330943541402*^9}, 
 {5.725, 2.8778927288329906*^9, 8.319173579615495*^9}, 
 {5.75, 2.9082560773768916*^9, 8.368148469016321*^9}, 
 {5.7749999999999995, 2.938773934302026*^9, 8.417255708845442*^9}, 
 {5.8, 2.9694461439460573*^9, 8.466495394688695*^9}, 
 {5.824999999999999, 3.000272551146189*^9, 8.51586762063804*^9}, 
 {5.85, 3.0312530012552414*^9, 8.565372479312984*^9}, 
 {5.875, 3.0623873401570916*^9, 8.615010061881533*^9}, 
 {5.8999999999999995, 3.093675414281529*^9, 8.664780458081226*^9}, 
 {5.925, 3.1251170706184707*^9, 8.714683756239506*^9}, 
 {5.949999999999999, 3.1567121567315993*^9, 8.764720043293999*^9}, 
 {5.975, 3.1884605207714434*^9, 8.814889404812538*^9}, 
 {6., 3.220362011487869*^9, 8.865191925012777*^9}, 
 {6.0249999999999995, 3.252416478242043*^9, 8.915627686781595*^9}, 
 {6.05, 3.284623771017867*^9, 8.966196771694197*^9}, 
 {6.074999999999999, 3.3169837404328737*^9, 9.01689926003307*^9}, 
 {6.1, 3.3494962377486405*^9, 9.067735230806438*^9}, 
 {6.125, 3.3821611148807006*^9, 9.11870476176672*^9}, 
 {6.1499999999999995, 3.4149782244079566*^9, 9.169807929428497*^9}, 
 {6.175, 3.4479474195816646*^9, 9.22104480908633*^9}, 
 {6.199999999999999, 3.4810685543339357*^9, 9.272415474832453*^9}, 
 {6.225, 3.5143414832858043*^9, 9.323919999573818*^9}, 
 {6.25, 3.547766061754864*^9, 9.375558455049458*^9}, 
 {6.2749999999999995, 3.5813421457624803*^9, 9.427330911847054*^9}, 
 {6.3, 3.6150695920406137*^9, 9.479237439419662*^9}, 
 {6.325, 3.6489482580382295*^9, 9.531278106102032*^9}, 
 {6.35, 3.6829780019273314*^9, 9.583452979126678*^9}, 
 {6.375, 3.717158682608604*^9, 9.6357621246397*^9}, 
 {6.4, 3.751490159716727*^9, 9.688205607716583*^9}, 
 {6.425, 3.785972293625304*^9, 9.740783492377495*^9}, 
 {6.45, 3.8206049454514685*^9, 9.793495841602604*^9}, 
 {6.475, 3.855387977060136*^9, 9.84634271734689*^9}, 
 {6.5, 3.890321251067957*^9, 9.899324180555082*^9}, 
 {6.525, 3.9254046308469453*^9, 9.952440291176134*^9}, 
 {6.55, 3.960637980527799*^9, 1.0005691108177616*^10}, 
 {6.575, 3.996021165002925*^9, 1.0059076689559696*^10}, 
 {6.6000000000000005, 4.031554049929202*^9, 1.0112597092369404*^10}, 
 {6.625, 4.0672365017304354*^9, 1.0166252372713993*^10}, 
 {6.65, 4.10306838759954*^9, 1.0220042585774698*^10}, 
 {6.675000000000001, 4.1390495755005126*^9, 1.0273967785820093*^10}, 
 {6.7, 4.175179934170077*^9, 1.0328028026219027*^10}, 
 {6.7250000000000005, 4.2114593331191635*^9, 1.0382223359453842*^10}, 
 {6.75, 4.2478876426340895*^9, 1.0436553837133041*^10}, 
 {6.775, 4.28446473377754*^9, 1.0491019510003681*^10}, 
 {6.800000000000001, 4.321190478389326*^9, 1.05456204279641*^10}, 
 {6.825, 4.358064749086931*^9, 1.060035664007594*^10}, 
 {6.85, 4.395087419265825*^9, 1.0655228194576187*^10}, 
 {6.874999999999999, 4.432258363099624*^9, 1.0710235138889194*^10}, 
 {6.9, 4.469577455540007*^9, 1.0765377519638123*^10}, 
 {6.925, 4.507044572316478*^9, 1.0820655382656746*^10}, 
 {6.949999999999999, 4.544659589935942*^9, 1.0876068773000528*^10}, 
 {6.9750000000000005, 4.582422385682108*^9, 1.0931617734958164*^10}, 
 {7., 4.620332837614701*^9, 1.0987302312062181*^10}, 
 {7.0249999999999995, 4.658390824568547*^9, 1.1043122547100233*^10}, 
 {7.050000000000001, 4.696596226152488*^9, 1.1099078482125505*^10}, 
 {7.075, 4.734948922748116*^9, 1.1155170158467379*^10}, 
 {7.1, 4.7734487955084305*^9, 1.1211397616741894*^10}, 
 {7.124999999999999, 4.812095726356282*^9, 1.126776089686186*^10}, 
 {7.15, 4.850889597982733*^9, 1.1324260038047081*^10}, 
 {7.175, 4.889830293845247*^9, 1.1380895078834259*^10}, 
 {7.199999999999999, 4.928917698165814*^9, 1.14376660570868*^10}, 
 {7.2250000000000005, 4.968151695928881*^9, 1.1494573010004501*^10}, 
 {7.25, 5.007532172879222*^9, 1.1551615974132942*^10}, 
 {7.2749999999999995, 5.047059015519681*^9, 1.160879498537315*^10}, 
 {7.300000000000001, 5.086732111108815*^9, 1.1666110078990543*^10}, 
 {7.325, 5.126551347658401*^9, 1.1723561289624306*^10}, 
 {7.35, 5.16651661393091*^9, 1.1781148651296124*^10}, 
 {7.375000000000001, 5.206627799436819*^9, 1.1838872197419159*^10}, 
 {7.4, 5.246884794431892*^9, 1.1896731960806902*^10}, 
 {7.425, 5.287287489914318*^9, 1.1954727973681452*^10}, 
 {7.450000000000001, 5.327835777621829*^9, 1.2012860267682178*^10}, 
 {7.4750000000000005, 5.368529550028687*^9, 1.2071128873874207*^10}, 
 {7.5, 5.409368700342622*^9, 1.212953382275626*^10}, 
 {7.5249999999999995, 5.450353122501706*^9, 1.2188075144269157*^10}, 
 {7.550000000000001, 5.491482711171127*^9, 1.2246752867803478*^10}, 
 {7.575, 5.532757361739934*^9, 1.2305567022207613*^10}, 
 {7.6, 5.5741769703177*^9, 1.2364517635795485*^10}, 
 {7.625000000000001, 5.615741433731134*^9, 1.2423604736354126*^10}, 
 {7.65, 5.6574506495206375*^9, 1.2482828351151365*^10}, 
 {7.675, 5.699304515936789*^9, 1.254218850694299*^10}, 
 {7.700000000000001, 5.741302931936825*^9, 1.2601685229980274*^10}, 
 {7.7250000000000005, 5.783445797181021*^9, 1.2661318546017136*^10}, 
 {7.75, 5.825733012029053*^9, 1.2721088480317085*^10}, 
 {7.7749999999999995, 5.868164477536342*^9, 1.2780995057660486*^10}, 
 {7.800000000000001, 5.910740095450293*^9, 1.2841038302351255*^10}, 
 {7.825, 5.953459768206567*^9, 1.29012182382236*^10}, 
 {7.85, 5.996323398925275*^9, 1.2961534888648994*^10}, 
 {7.875000000000001, 6.039330891407164*^9, 1.3021988276542416*^10}, 
 {7.9, 6.082482150129743*^9, 1.3082578424369196*^10}, 
 {7.925, 6.125777080243411*^9, 1.314330535415116*^10}, 
 {7.949999999999999, 6.169215587567553*^9, 1.3204169087473011*^10}, 
 {7.9750000000000005, 6.212797578586593*^9, 1.326516964548865*^10}, 
 {8., 6.256522960446044*^9, 1.3326307048927206*^10}}
